{
	"ABI version": 2,
	"header": ["pubkey", "time", "expire"],
	"functions": [
		{
			"name": "constructor",
			"inputs": [
				{"name":"relays","type":"uint256[]"},
				{"name":"nreqs","type":"uint8"},
				{"name":"duneUserSwapCode","type":"cell"},
				{"name":"merge_expiration_date","type":"uint64"},
				{"name":"swap_expiration_time","type":"uint64"},
				{"name":"testing","type":"bool"}
			],
			"outputs": [
			]
		},
		{
			"name": "closeSwap",
			"inputs": [
			],
			"outputs": [
			]
		},
		{
			"name": "_getState",
			"inputs": [
			],
			"outputs": [
				{"name":"nreqs","type":"uint8"},
				{"name":"relays","type":"uint256[]"},
				{"name":"indexes","type":"uint8[]"}
			]
		},
		{
			"name": "deployUserSwap",
			"inputs": [
				{"name":"pubkey","type":"uint256"},
				{"name":"swap_hash","type":"uint256"}
			],
			"outputs": [
				{"name":"newSwap","type":"address"}
			]
		},
		{
			"name": "relayPingPong",
			"inputs": [
				{"name":"kind","type":"uint8"},
				{"name":"version","type":"uint8"}
			],
			"outputs": [
			]
		},
		{
			"name": "deployedConfirmed",
			"inputs": [
				{"name":"pubkey","type":"uint256"},
				{"name":"swap_hash","type":"uint256"},
				{"name":"relay_index","type":"uint8"}
			],
			"outputs": [
			]
		},
		{
			"name": "creditOrder",
			"inputs": [
				{"name":"order_id","type":"bytes"},
				{"name":"swap_hash","type":"uint256"},
				{"name":"ton_amount","type":"uint128"},
				{"name":"pubkey","type":"uint256"}
			],
			"outputs": [
			]
		},
		{
			"name": "userSwapDeployed",
			"inputs": [
				{"name":"pubkey","type":"uint256"},
				{"name":"swap_hash","type":"uint256"},
				{"name":"user_addr","type":"address"},
				{"name":"relay_index","type":"uint8"}
			],
			"outputs": [
			]
		},
		{
			"name": "orderStateChanged",
			"inputs": [
				{"name":"pubkey","type":"uint256"},
				{"name":"swap_hash","type":"uint256"},
				{"name":"order_id","type":"bytes"},
				{"name":"state_count","type":"uint32"},
				{"name":"state","type":"uint8"}
			],
			"outputs": [
			]
		},
		{
			"name": "orderSecretRevealed",
			"inputs": [
				{"name":"pubkey","type":"uint256"},
				{"name":"swap_hash","type":"uint256"},
				{"name":"order_id","type":"bytes"},
				{"name":"secret","type":"bytes"},
				{"name":"status","type":"uint8"}
			],
			"outputs": [
			]
		},
		{
			"name": "orderConfirmedByRelay",
			"inputs": [
				{"name":"pubkey","type":"uint256"},
				{"name":"swap_hash","type":"uint256"},
				{"name":"order_id","type":"bytes"},
				{"name":"relay_pubkey","type":"uint256"}
			],
			"outputs": [
			]
		},
		{
			"name": "cleanChanges",
			"inputs": [
			],
			"outputs": [
			]
		},
		{
			"name": "proposeChange",
			"inputs": [
				{"name":"nreqs","type":"uint8"},
				{"name":"add_relays","type":"uint256[]"},
				{"name":"del_relays","type":"uint256[]"},
				{"name":"merge_expiration_date","type":"uint64"}
			],
			"outputs": [
				{"name":"changeId","type":"uint64"}
			]
		},
		{
			"name": "acceptChange",
			"inputs": [
				{"name":"changeId","type":"uint64"}
			],
			"outputs": [
			]
		},
		{
			"name": "rejectChange",
			"inputs": [
				{"name":"changeId","type":"uint64"}
			],
			"outputs": [
			]
		},
		{
			"name": "updateRelays",
			"inputs": [
				{"name":"user_pubkey","type":"uint256"},
				{"name":"swap_hash","type":"uint256"}
			],
			"outputs": [
			]
		},
		{
			"name": "getChange",
			"inputs": [
			],
			"outputs": [
				{"components":[{"name":"id","type":"uint64"},{"name":"creation_time","type":"uint64"},{"name":"ackMask","type":"uint64"},{"name":"rejMask","type":"uint64"},{"name":"n_ack","type":"uint8"},{"name":"n_rej","type":"uint8"},{"name":"nreqs","type":"uint8"},{"name":"add_relays","type":"uint256[]"},{"name":"del_relays","type":"uint256[]"},{"name":"merge_expiration_date","type":"uint64"}],"name":"change","type":"tuple"}
			]
		},
		{
			"name": "getUserSwapAddress",
			"inputs": [
				{"name":"pubkey","type":"uint256"},
				{"name":"swap_hash","type":"uint256"}
			],
			"outputs": [
				{"name":"addr","type":"address"}
			]
		},
		{
			"name": "remainingTime",
			"inputs": [
			],
			"outputs": [
				{"name":"remaining_time","type":"uint64"}
			]
		},
		{
			"name": "getConfig",
			"inputs": [
			],
			"outputs": [
				{"name":"merge_expiration_date","type":"uint64"},
				{"name":"swap_expiration_time","type":"uint64"}
			]
		},
		{
			"name": "get",
			"inputs": [
			],
			"outputs": [
				{"name":"nreqs","type":"uint8"},
				{"name":"relays","type":"uint256[]"},
				{"name":"indexes","type":"uint8[]"},
				{"name":"root_address","type":"address"},
				{"name":"nrelays","type":"uint8"},
				{"name":"relay_counter","type":"uint8"},
				{"name":"merge_expiration_date","type":"uint64"},
				{"name":"swap_expiration_time","type":"uint64"},
				{"name":"change_counter","type":"uint64"},
				{"name":"change_state","type":"uint8"},
				{"name":"prev_user_key","type":"uint256"},
				{"name":"testing","type":"bool"}
			]
		},
		{
			"name": "getSwapHash",
			"inputs": [
				{"name":"pubkey","type":"uint256"},
				{"name":"order_id","type":"bytes"},
				{"name":"hashed_secret","type":"uint256"},
				{"name":"ton_amount","type":"uint64"},
				{"name":"dest","type":"address"},
				{"name":"depool","type":"address"},
				{"name":"swap_date","type":"uint64"}
			],
			"outputs": [
				{"name":"swap_hash","type":"uint256"}
			]
		},
		{
			"name": "getTime",
			"inputs": [
			],
			"outputs": [
				{"name":"time","type":"uint64"}
			]
		},
		{
			"name": "g_nreqs",
			"inputs": [
			],
			"outputs": [
				{"name":"g_nreqs","type":"uint8"}
			]
		},
		{
			"name": "g_relays",
			"inputs": [
			],
			"outputs": [
				{"name":"g_relays","type":"map(uint256,uint8)"}
			]
		},
		{
			"name": "g_nrelays",
			"inputs": [
			],
			"outputs": [
				{"name":"g_nrelays","type":"uint8"}
			]
		},
		{
			"name": "g_relay_counter",
			"inputs": [
			],
			"outputs": [
				{"name":"g_relay_counter","type":"uint8"}
			]
		},
		{
			"name": "g_prev_user_key",
			"inputs": [
			],
			"outputs": [
				{"name":"g_prev_user_key","type":"uint256"}
			]
		},
		{
			"name": "g_prev_swap_hash",
			"inputs": [
			],
			"outputs": [
				{"name":"g_prev_swap_hash","type":"uint256"}
			]
		},
		{
			"name": "g_unconfirmed_deployments",
			"inputs": [
			],
			"outputs": [
				{"name":"g_unconfirmed_deployments","type":"map(uint8,uint32)"}
			]
		},
		{
			"name": "g_freeton_giver",
			"inputs": [
			],
			"outputs": [
				{"name":"g_freeton_giver","type":"address"}
			]
		},
		{
			"name": "g_root_address",
			"inputs": [
			],
			"outputs": [
				{"name":"g_root_address","type":"address"}
			]
		},
		{
			"name": "g_duneUserSwapCode",
			"inputs": [
			],
			"outputs": [
				{"name":"g_duneUserSwapCode","type":"cell"}
			]
		},
		{
			"name": "g_merge_expiration_date",
			"inputs": [
			],
			"outputs": [
				{"name":"g_merge_expiration_date","type":"uint64"}
			]
		},
		{
			"name": "g_testing",
			"inputs": [
			],
			"outputs": [
				{"name":"g_testing","type":"bool"}
			]
		}
	],
	"data": [
	],
	"events": [
		{
			"name": "RelayPingPong",
			"inputs": [
				{"name":"pubkey","type":"uint256"},
				{"name":"kind","type":"uint8"},
				{"name":"version","type":"uint8"}
			],
			"outputs": [
			]
		},
		{
			"name": "DeployUserSwap",
			"inputs": [
				{"name":"pubkey","type":"uint256"},
				{"name":"swap_hash","type":"uint256"},
				{"name":"user_addr","type":"address"}
			],
			"outputs": [
			]
		},
		{
			"name": "UserSwapDeployed",
			"inputs": [
				{"name":"pubkey","type":"uint256"},
				{"name":"swap_hash","type":"uint256"},
				{"name":"user_addr","type":"address"}
			],
			"outputs": [
			]
		},
		{
			"name": "OrderConfirmedByRelay",
			"inputs": [
				{"name":"order_id","type":"bytes"},
				{"name":"pubkey","type":"uint256"}
			],
			"outputs": [
			]
		},
		{
			"name": "CreditOrder",
			"inputs": [
				{"name":"order_id","type":"bytes"},
				{"name":"accepted","type":"bool"},
				{"name":"ton_amount","type":"uint128"}
			],
			"outputs": [
			]
		},
		{
			"name": "OrderStateChanged",
			"inputs": [
				{"name":"order_id","type":"bytes"},
				{"name":"state_count","type":"uint32"},
				{"name":"state","type":"uint8"}
			],
			"outputs": [
			]
		},
		{
			"name": "OrderSecretRevealed",
			"inputs": [
				{"name":"order_id","type":"bytes"},
				{"name":"secret","type":"bytes"},
				{"name":"status","type":"uint8"}
			],
			"outputs": [
			]
		}
	]
}
