{
  "contract_path": "../contracts/dune-network/liquidity/swap.liq",
  "contract_nickname": "swap",
  "language": "liquidity",
  "contract_love_path": "../contracts/dune-network/love/swap.lov.json",
  "kt1s": [],
  "depends": []
}
